(Pertemuan 04) R: Visualisasi Dua Variabel, Time Series, dan ggplot2 – Lab Praktikum Departemen Matematika FMIPA UI
…
Kebetulan, ggplot2 menyediakan beberapa dataset (yang tidak tersedia di base R) yang bisa kita gunakan untuk mempelajari dan mengeksplorasi ggplot2.

data(package = "ggplot2")

Kita lihat, data time series tersedia di ggplot2, bernama economics. Mari kita lihat-lihat:

data("economics", package = "ggplot2")

df2 <- economics

View(df2)
df2

# A tibble: 574 × 6
   date         pce    pop psavert uempmed unemploy
   <date>     <dbl>  <dbl>   <dbl>   <dbl>    <dbl>
 1 1967-07-01  507. 198712    12.6     4.5     2944
 2 1967-08-01  510. 198911    12.6     4.7     2945
 3 1967-09-01  516. 199113    11.9     4.6     2958
 4 1967-10-01  512. 199311    12.9     4.9     3143
 5 1967-11-01  517. 199498    12.8     4.7     3066
 6 1967-12-01  525. 199657    11.8     4.8     3018
 7 1968-01-01  531. 199808    11.7     5.1     2878
 8 1968-02-01  534. 199920    12.3     4.5     3001
 9 1968-03-01  544. 200056    11.7     4.1     2877
10 1968-04-01  544  200208    12.3     4.6     2709
# ℹ 564 more rows
…
